Untitled
…
bootstraps(youtube, times = 1000)

## # Bootstrap sampling 
## # A tibble: 1,000 x 2
##    splits            id           
##    <list>            <chr>        
##  1 <split [247/93]>  Bootstrap0001
##  2 <split [247/93]>  Bootstrap0002
##  3 <split [247/89]>  Bootstrap0003
##  4 <split [247/90]>  Bootstrap0004
##  5 <split [247/99]>  Bootstrap0005
##  6 <split [247/81]>  Bootstrap0006
##  7 <split [247/89]>  Bootstrap0007
##  8 <split [247/102]> Bootstrap0008
##  9 <split [247/91]>  Bootstrap0009
## 10 <split [247/93]>  Bootstrap0010
## #  with 990 more rows
…
